<?xml version="1.0"?>
<svg xmlns="http://www.w3.org/2000/svg" xmlns:xlink="http://www.w3.org/1999/xlink" version="1.1" id="Capa_1" x="0px" y="0px" viewBox="0 0 32 32" style="enable-background:new 0 0 32 32;" xml:space="preserve" width="512px" height="512px"><g><g>
	<g id="loop_x5F_alt3">
		<g>
			<path d="M28,16v2c0,1.102-0.898,2-2,2H11.996L12,16l-8,6l8,6l-0.004-4H26c3.309,0,6-2.695,6-6v-2H28z" data-original="#030104" class="active-path" data-old_color="#030104" fill="#434343"/>
			<path d="M4,14c0-1.105,0.898-2,2-2h14v4l7.992-6L20,4v4H6c-3.309,0-6,2.688-6,6v2h4V14z" data-original="#030104" class="active-path" data-old_color="#030104" fill="#434343"/>
		</g>
	</g>
</g><script xmlns=""/></g> </svg>
